/Applications/downloaded/eclipse_luna_jee/workspace/walmart/backend/api/src/main/java/com/walmart/dto/VertexDTO.java
/Applications/downloaded/eclipse_luna_jee/workspace/walmart/backend/api/src/main/java/com/walmart/dto/StatMsgDTO.java
/Applications/downloaded/eclipse_luna_jee/workspace/walmart/backend/api/src/main/java/com/walmart/service/EdgeService.java
/Applications/downloaded/eclipse_luna_jee/workspace/walmart/backend/api/src/main/java/com/walmart/entity/Edge.java
/Applications/downloaded/eclipse_luna_jee/workspace/walmart/backend/api/src/main/java/com/walmart/dto/EdgeDTO.java
/Applications/downloaded/eclipse_luna_jee/workspace/walmart/backend/api/src/main/java/com/walmart/dto/MapDTO.java
/Applications/downloaded/eclipse_luna_jee/workspace/walmart/backend/api/src/main/java/com/walmart/service/MapService.java
/Applications/downloaded/eclipse_luna_jee/workspace/walmart/backend/api/src/main/java/com/walmart/entity/Vertex.java
/Applications/downloaded/eclipse_luna_jee/workspace/walmart/backend/api/src/main/java/com/walmart/service/VertexService.java
