/Applications/downloaded/eclipse_luna_jee/workspace/walmart/frontend/web/src/main/java/com/walmart/web/rest/MapController.java
/Applications/downloaded/eclipse_luna_jee/workspace/walmart/frontend/web/src/main/java/com/walmart/web/config/RestConfig.java
/Applications/downloaded/eclipse_luna_jee/workspace/walmart/frontend/web/src/main/java/com/walmart/web/rest/VertexController.java
/Applications/downloaded/eclipse_luna_jee/workspace/walmart/frontend/web/src/main/java/com/walmart/web/rest/EdgeController.java
